{
  "version": 2,
  "name": "now-next-test",
  "alias": "now-next-test.patwoz.de",
  "scope": "patwoz",
  "regions": ["bru1", "cdg1"],
  "builds": [
    {
      "src": "package.json",
      "use": "@now/next"
    }
  ]
}
